<?xml version="1.0" encoding="iso-8859-1"?>
<!-- Generator: Adobe Illustrator 19.0.0, SVG Export Plug-In . SVG Version: 6.00 Build 0)  -->
<svg version="1.1" id="Capa_1" xmlns="http://www.w3.org/2000/svg" xmlns:xlink="http://www.w3.org/1999/xlink" x="0px" y="0px"
	 viewBox="0 0 512 512" style="enable-background:new 0 0 512 512;" xml:space="preserve">
<g>
	<g>
		<path d="M509.053,371.184c-5.903-22.032-20.033-40.446-39.787-51.85c-2.069-1.195-4.181-2.275-6.317-3.286
			c0.984-8.259,1.493-16.608,1.493-24.947c0-43.031-13.007-84.342-37.613-119.467c-21.785-31.098-51.183-55.387-85.514-70.773
			c0.035-1.002,0.077-2.003,0.077-3.012c0-47.086-38.307-85.392-85.392-85.392s-85.392,38.307-85.392,85.392
			c0,1.011,0.042,2.011,0.077,3.012c-34.331,15.387-63.729,39.676-85.514,70.773C60.565,206.758,47.558,248.069,47.558,291.1
			c0,8.34,0.508,16.688,1.493,24.946c-2.136,1.011-4.248,2.091-6.317,3.286C22.98,330.738,8.85,349.152,2.946,371.184
			c-5.903,22.032-2.874,45.044,8.531,64.797c11.404,19.753,29.818,33.883,51.85,39.787c7.358,1.972,14.822,2.947,22.24,2.947
			c14.796,0,29.4-3.881,42.557-11.477c2.871-1.658,5.608-3.48,8.233-5.423c35.111,24.724,76.211,37.73,119.642,37.73
			c43.431,0,84.532-13.007,119.642-37.73c2.626,1.943,5.363,3.766,8.233,5.423c13.159,7.597,27.76,11.478,42.557,11.477
			c7.416,0,14.884-0.975,22.24-2.947c22.032-5.903,40.446-20.033,51.85-39.787C511.927,416.228,514.957,393.217,509.053,371.184z
			 M256,42.833c30.335,0,55.014,24.68,55.014,55.014c0,30.334-24.68,55.014-55.014,55.014s-55.014-24.679-55.014-55.014
			C200.986,67.512,225.665,42.833,256,42.833z M138.568,407.526c-3.804,14.193-12.907,26.056-25.633,33.404
			c-12.726,7.346-27.551,9.299-41.746,5.496c-14.195-3.803-26.057-12.907-33.405-25.633s-9.3-27.552-5.496-41.746
			c3.803-14.195,12.907-26.057,25.633-33.405c8.477-4.894,17.884-7.394,27.418-7.394c4.777,0,9.589,0.629,14.327,1.899
			c14.195,3.803,26.057,12.907,33.406,25.633C140.419,378.506,142.372,393.331,138.568,407.526z M344.088,415.386
			c2.311,8.622,5.897,16.68,10.571,23.989c-29.194,19.536-63.007,29.789-98.66,29.789c-35.652,0.001-69.465-10.253-98.659-29.789
			c4.674-7.311,8.261-15.367,10.57-23.989c5.903-22.032,2.874-45.044-8.531-64.797s-29.819-33.883-51.851-39.787
			c-9.525-2.553-19.233-3.428-28.782-2.685c-0.535-5.647-0.812-11.334-0.812-17.017c0-67.838,39.381-130.144,99.494-159.826
			c13.034,30.52,43.343,51.964,78.571,51.964s65.537-21.446,78.571-51.964c60.113,29.682,99.494,91.988,99.494,159.826
			c0,5.684-0.277,11.37-0.812,17.018c-9.549-0.742-19.257,0.133-28.782,2.684c-22.032,5.903-40.446,20.033-51.851,39.787
			C341.214,370.343,338.185,393.354,344.088,415.386z M474.215,420.793c-7.347,12.726-19.211,21.83-33.404,25.633
			c-14.196,3.802-29.02,1.851-41.746-5.496c-12.726-7.347-21.83-19.211-25.633-33.404c-3.803-14.195-1.851-29.02,5.496-41.746
			c7.347-12.726,19.211-21.83,33.406-25.633c4.74-1.27,9.549-1.899,14.327-1.899c9.533,0,18.942,2.5,27.418,7.394
			c12.726,7.347,21.83,19.211,25.633,33.405C483.514,393.241,481.562,408.066,474.215,420.793z " fill="white" stroke="#1f8dad"/>
	</g>
</g>
<g>
</g>
<g>
</g>
<g>
</g>
<g>
</g>
<g>
</g>
<g>
</g>
<g>
</g>
<g>
</g>
<g>
</g>
<g>
</g>
<g>
</g>
<g>
</g>
<g>
</g>
<g>
</g>
<g>
</g>
</svg>
